%YAML 1.1
%TAG !u! tag:unity3d.com,2011:
--- !u!1 &8102657534356488988
GameObject:
  m_ObjectHideFlags: 0
  m_CorrespondingSourceObject: {fileID: 0}
  m_PrefabInstance: {fileID: 0}
  m_PrefabAsset: {fileID: 0}
  serializedVersion: 6
  m_Component:
  - component: {fileID: 5652501108594561961}
  m_Layer: 0
  m_Name: Cofre
  m_TagString: Untagged
  m_Icon: {fileID: 0}
  m_NavMeshLayer: 0
  m_StaticEditorFlags: 0
  m_IsActive: 1
--- !u!4 &5652501108594561961
Transform:
  m_ObjectHideFlags: 0
  m_CorrespondingSourceObject: {fileID: 0}
  m_PrefabInstance: {fileID: 0}
  m_PrefabAsset: {fileID: 0}
  m_GameObject: {fileID: 8102657534356488988}
  m_LocalRotation: {x: 0, y: 0, z: 0, w: 1}
  m_LocalPosition: {x: 0, y: 0, z: 0}
  m_LocalScale: {x: 1, y: 1, z: 1}
  m_Children:
  - {fileID: 2906646032584815624}
  m_Father: {fileID: 0}
  m_RootOrder: 0
  m_LocalEulerAnglesHint: {x: 0, y: 0, z: 0}
--- !u!1001 &3448845097246479331
PrefabInstance:
  m_ObjectHideFlags: 0
  serializedVersion: 2
  m_Modification:
    m_TransformParent: {fileID: 5652501108594561961}
    m_Modifications:
    - target: {fileID: -8997535809925198310, guid: 9f061875473774a4ea585082beaed95f, type: 3}
      propertyPath: m_Materials.Array.data[0]
      value: 
      objectReference: {fileID: 2100000, guid: 4f50a784bc2c7d241b16dae65d0366d3, type: 2}
    - target: {fileID: -8679921383154817045, guid: 9f061875473774a4ea585082beaed95f, type: 3}
      propertyPath: m_LocalPosition.x
      value: 0
      objectReference: {fileID: 0}
    - target: {fileID: -8679921383154817045, guid: 9f061875473774a4ea585082beaed95f, type: 3}
      propertyPath: m_LocalPosition.y
      value: 0
      objectReference: {fileID: 0}
    - target: {fileID: -8679921383154817045, guid: 9f061875473774a4ea585082beaed95f, type: 3}
      propertyPath: m_LocalPosition.z
      value: 0
      objectReference: {fileID: 0}
    - target: {fileID: -8679921383154817045, guid: 9f061875473774a4ea585082beaed95f, type: 3}
      propertyPath: m_LocalRotation.x
      value: 0
      objectReference: {fileID: 0}
    - target: {fileID: -8679921383154817045, guid: 9f061875473774a4ea585082beaed95f, type: 3}
      propertyPath: m_LocalRotation.y
      value: 0
      objectReference: {fileID: 0}
    - target: {fileID: -8679921383154817045, guid: 9f061875473774a4ea585082beaed95f, type: 3}
      propertyPath: m_LocalRotation.z
      value: 0
      objectReference: {fileID: 0}
    - target: {fileID: -8679921383154817045, guid: 9f061875473774a4ea585082beaed95f, type: 3}
      propertyPath: m_LocalRotation.w
      value: 1
      objectReference: {fileID: 0}
    - target: {fileID: -8679921383154817045, guid: 9f061875473774a4ea585082beaed95f, type: 3}
      propertyPath: m_RootOrder
      value: 0
      objectReference: {fileID: 0}
    - target: {fileID: -8679921383154817045, guid: 9f061875473774a4ea585082beaed95f, type: 3}
      propertyPath: m_LocalEulerAnglesHint.x
      value: 0
      objectReference: {fileID: 0}
    - target: {fileID: -8679921383154817045, guid: 9f061875473774a4ea585082beaed95f, type: 3}
      propertyPath: m_LocalEulerAnglesHint.y
      value: 0
      objectReference: {fileID: 0}
    - target: {fileID: -8679921383154817045, guid: 9f061875473774a4ea585082beaed95f, type: 3}
      propertyPath: m_LocalEulerAnglesHint.z
      value: 0
      objectReference: {fileID: 0}
    - target: {fileID: 728239666595110446, guid: 9f061875473774a4ea585082beaed95f, type: 3}
      propertyPath: m_Materials.Array.data[0]
      value: 
      objectReference: {fileID: 2100000, guid: 4f50a784bc2c7d241b16dae65d0366d3, type: 2}
    - target: {fileID: 919132149155446097, guid: 9f061875473774a4ea585082beaed95f, type: 3}
      propertyPath: m_Name
      value: Cofre_01
      objectReference: {fileID: 0}
    - target: {fileID: 1264071069676015242, guid: 9f061875473774a4ea585082beaed95f, type: 3}
      propertyPath: m_LocalRotation.x
      value: -0.7071053
      objectReference: {fileID: 0}
    - target: {fileID: 1264071069676015242, guid: 9f061875473774a4ea585082beaed95f, type: 3}
      propertyPath: m_LocalRotation.y
      value: 0.0014315172
      objectReference: {fileID: 0}
    - target: {fileID: 1264071069676015242, guid: 9f061875473774a4ea585082beaed95f, type: 3}
      propertyPath: m_LocalRotation.z
      value: -0.0014315872
      objectReference: {fileID: 0}
    - target: {fileID: 1264071069676015242, guid: 9f061875473774a4ea585082beaed95f, type: 3}
      propertyPath: m_LocalRotation.w
      value: 0.7071054
      objectReference: {fileID: 0}
    - target: {fileID: 1264071069676015242, guid: 9f061875473774a4ea585082beaed95f, type: 3}
      propertyPath: m_LocalEulerAnglesHint.x
      value: -89.768
      objectReference: {fileID: 0}
    - target: {fileID: 1264071069676015242, guid: 9f061875473774a4ea585082beaed95f, type: 3}
      propertyPath: m_LocalEulerAnglesHint.y
      value: 89.998
      objectReference: {fileID: 0}
    - target: {fileID: 1264071069676015242, guid: 9f061875473774a4ea585082beaed95f, type: 3}
      propertyPath: m_LocalEulerAnglesHint.z
      value: -89.998
      objectReference: {fileID: 0}
    m_RemovedComponents: []
  m_SourcePrefab: {fileID: 100100000, guid: 9f061875473774a4ea585082beaed95f, type: 3}
--- !u!4 &2906646032584815624 stripped
Transform:
  m_CorrespondingSourceObject: {fileID: -8679921383154817045, guid: 9f061875473774a4ea585082beaed95f, type: 3}
  m_PrefabInstance: {fileID: 3448845097246479331}
  m_PrefabAsset: {fileID: 0}
