%YAML 1.1
%TAG !u! tag:unity3d.com,2011:
--- !u!1 &6012999397991813326
GameObject:
  m_ObjectHideFlags: 0
  m_CorrespondingSourceObject: {fileID: 0}
  m_PrefabInstance: {fileID: 0}
  m_PrefabAsset: {fileID: 0}
  serializedVersion: 6
  m_Component:
  - component: {fileID: 9134178788930149903}
  - component: {fileID: 7898387968194330015}
  - component: {fileID: 1201800055838798964}
  - component: {fileID: 248946726148646798}
  - component: {fileID: 103676398321787436}
  m_Layer: 0
  m_Name: Columna
  m_TagString: Untagged
  m_Icon: {fileID: 0}
  m_NavMeshLayer: 0
  m_StaticEditorFlags: 0
  m_IsActive: 1
--- !u!4 &9134178788930149903
Transform:
  m_ObjectHideFlags: 0
  m_CorrespondingSourceObject: {fileID: 0}
  m_PrefabInstance: {fileID: 0}
  m_PrefabAsset: {fileID: 0}
  m_GameObject: {fileID: 6012999397991813326}
  m_LocalRotation: {x: -0, y: -0, z: -0, w: 1}
  m_LocalPosition: {x: 8.5, y: 0, z: 4}
  m_LocalScale: {x: 1, y: 1, z: 1}
  m_Children: []
  m_Father: {fileID: 0}
  m_RootOrder: 0
  m_LocalEulerAnglesHint: {x: 0, y: 0, z: 0}
--- !u!33 &7898387968194330015
MeshFilter:
  m_ObjectHideFlags: 0
  m_CorrespondingSourceObject: {fileID: 0}
  m_PrefabInstance: {fileID: 0}
  m_PrefabAsset: {fileID: 0}
  m_GameObject: {fileID: 6012999397991813326}
  m_Mesh: {fileID: 0}
--- !u!23 &1201800055838798964
MeshRenderer:
  m_ObjectHideFlags: 0
  m_CorrespondingSourceObject: {fileID: 0}
  m_PrefabInstance: {fileID: 0}
  m_PrefabAsset: {fileID: 0}
  m_GameObject: {fileID: 6012999397991813326}
  m_Enabled: 1
  m_CastShadows: 1
  m_ReceiveShadows: 1
  m_DynamicOccludee: 1
  m_MotionVectors: 1
  m_LightProbeUsage: 1
  m_ReflectionProbeUsage: 1
  m_RayTracingMode: 2
  m_RayTraceProcedural: 0
  m_RenderingLayerMask: 1
  m_RendererPriority: 0
  m_Materials:
  - {fileID: 2100000, guid: c22777d6e868e4f2fb421913386b154e, type: 2}
  m_StaticBatchInfo:
    firstSubMesh: 0
    subMeshCount: 0
  m_StaticBatchRoot: {fileID: 0}
  m_ProbeAnchor: {fileID: 0}
  m_LightProbeVolumeOverride: {fileID: 0}
  m_ScaleInLightmap: 1
  m_ReceiveGI: 1
  m_PreserveUVs: 0
  m_IgnoreNormalsForChartDetection: 0
  m_ImportantGI: 0
  m_StitchLightmapSeams: 1
  m_SelectedEditorRenderState: 2
  m_MinimumChartSize: 4
  m_AutoUVMaxDistance: 0.5
  m_AutoUVMaxAngle: 89
  m_LightmapParameters: {fileID: 0}
  m_SortingLayerID: 0
  m_SortingLayer: 0
  m_SortingOrder: 0
  m_AdditionalVertexStreams: {fileID: 0}
--- !u!114 &248946726148646798
MonoBehaviour:
  m_ObjectHideFlags: 0
  m_CorrespondingSourceObject: {fileID: 0}
  m_PrefabInstance: {fileID: 0}
  m_PrefabAsset: {fileID: 0}
  m_GameObject: {fileID: 6012999397991813326}
  m_Enabled: 1
  m_EditorHideFlags: 0
  m_Script: {fileID: 11500000, guid: 8233d90336aea43098adf6dbabd606a2, type: 3}
  m_Name: 
  m_EditorClassIdentifier: 
  m_MeshFormatVersion: 1
  m_Faces:
  - m_Indexes: 000000000100000002000000010000000300000002000000
    m_SmoothingGroup: 0
    m_Uv:
      m_UseWorldSpace: 0
      m_FlipU: 0
      m_FlipV: 0
      m_SwapUV: 0
      m_Fill: 1
      m_Scale: {x: 1, y: 1}
      m_Offset: {x: 0, y: 0}
      m_Rotation: 0
      m_Anchor: 9
    m_Material: {fileID: 0}
    m_SubmeshIndex: 0
    m_ManualUV: 0
    elementGroup: -1
    m_TextureGroup: -1
  - m_Indexes: 040000000500000006000000050000000700000006000000
    m_SmoothingGroup: 0
    m_Uv:
      m_UseWorldSpace: 0
      m_FlipU: 0
      m_FlipV: 0
      m_SwapUV: 0
      m_Fill: 1
      m_Scale: {x: 1, y: 1}
      m_Offset: {x: 0, y: 0}
      m_Rotation: 0
      m_Anchor: 9
    m_Material: {fileID: 0}
    m_SubmeshIndex: 0
    m_ManualUV: 0
    elementGroup: -1
    m_TextureGroup: -1
  - m_Indexes: 08000000090000000a000000090000000b0000000a000000
    m_SmoothingGroup: 0
    m_Uv:
      m_UseWorldSpace: 0
      m_FlipU: 0
      m_FlipV: 0
      m_SwapUV: 0
      m_Fill: 1
      m_Scale: {x: 1, y: 1}
      m_Offset: {x: 0, y: 0}
      m_Rotation: 0
      m_Anchor: 9
    m_Material: {fileID: 0}
    m_SubmeshIndex: 0
    m_ManualUV: 0
    elementGroup: -1
    m_TextureGroup: -1
  - m_Indexes: 0c0000000d0000000e0000000d0000000f0000000e000000
    m_SmoothingGroup: 0
    m_Uv:
      m_UseWorldSpace: 0
      m_FlipU: 0
      m_FlipV: 0
      m_SwapUV: 0
      m_Fill: 1
      m_Scale: {x: 1, y: 1}
      m_Offset: {x: 0, y: 0}
      m_Rotation: 0
      m_Anchor: 9
    m_Material: {fileID: 0}
    m_SubmeshIndex: 0
    m_ManualUV: 0
    elementGroup: -1
    m_TextureGroup: -1
  - m_Indexes: 100000001100000012000000110000001300000012000000
    m_SmoothingGroup: 0
    m_Uv:
      m_UseWorldSpace: 0
      m_FlipU: 0
      m_FlipV: 0
      m_SwapUV: 0
      m_Fill: 1
      m_Scale: {x: 1, y: 1}
      m_Offset: {x: 0, y: 0}
      m_Rotation: 0
      m_Anchor: 9
    m_Material: {fileID: 0}
    m_SubmeshIndex: 0
    m_ManualUV: 0
    elementGroup: -1
    m_TextureGroup: -1
  - m_Indexes: 140000001500000016000000150000001700000016000000
    m_SmoothingGroup: 0
    m_Uv:
      m_UseWorldSpace: 0
      m_FlipU: 0
      m_FlipV: 0
      m_SwapUV: 0
      m_Fill: 1
      m_Scale: {x: 1, y: 1}
      m_Offset: {x: 0, y: 0}
      m_Rotation: 0
      m_Anchor: 9
    m_Material: {fileID: 0}
    m_SubmeshIndex: 0
    m_ManualUV: 0
    elementGroup: -1
    m_TextureGroup: -1
  - m_Indexes: 18000000190000001a000000190000001b0000001a000000
    m_SmoothingGroup: 0
    m_Uv:
      m_UseWorldSpace: 0
      m_FlipU: 0
      m_FlipV: 0
      m_SwapUV: 0
      m_Fill: 1
      m_Scale: {x: 1, y: 1}
      m_Offset: {x: 0, y: 0}
      m_Rotation: 0
      m_Anchor: 9
    m_Material: {fileID: 0}
    m_SubmeshIndex: 0
    m_ManualUV: 0
    elementGroup: -1
    m_TextureGroup: -1
  - m_Indexes: 1c0000001d0000001e0000001d0000001f0000001e000000
    m_SmoothingGroup: 0
    m_Uv:
      m_UseWorldSpace: 0
      m_FlipU: 0
      m_FlipV: 0
      m_SwapUV: 0
      m_Fill: 1
      m_Scale: {x: 1, y: 1}
      m_Offset: {x: 0, y: 0}
      m_Rotation: 0
      m_Anchor: 9
    m_Material: {fileID: 0}
    m_SubmeshIndex: 0
    m_ManualUV: 0
    elementGroup: -1
    m_TextureGroup: -1
  - m_Indexes: 200000002100000022000000210000002300000022000000
    m_SmoothingGroup: 0
    m_Uv:
      m_UseWorldSpace: 0
      m_FlipU: 0
      m_FlipV: 0
      m_SwapUV: 0
      m_Fill: 1
      m_Scale: {x: 1, y: 1}
      m_Offset: {x: 0, y: 0}
      m_Rotation: 0
      m_Anchor: 9
    m_Material: {fileID: 0}
    m_SubmeshIndex: 0
    m_ManualUV: 0
    elementGroup: -1
    m_TextureGroup: -1
  - m_Indexes: 240000002500000026000000250000002700000026000000
    m_SmoothingGroup: 0
    m_Uv:
      m_UseWorldSpace: 0
      m_FlipU: 0
      m_FlipV: 0
      m_SwapUV: 0
      m_Fill: 1
      m_Scale: {x: 1, y: 1}
      m_Offset: {x: 0, y: 0}
      m_Rotation: 0
      m_Anchor: 9
    m_Material: {fileID: 0}
    m_SubmeshIndex: 0
    m_ManualUV: 0
    elementGroup: -1
    m_TextureGroup: -1
  - m_Indexes: 28000000290000002a000000290000002b0000002a000000
    m_SmoothingGroup: 0
    m_Uv:
      m_UseWorldSpace: 0
      m_FlipU: 0
      m_FlipV: 0
      m_SwapUV: 0
      m_Fill: 1
      m_Scale: {x: 1, y: 1}
      m_Offset: {x: 0, y: 0}
      m_Rotation: 0
      m_Anchor: 9
    m_Material: {fileID: 0}
    m_SubmeshIndex: 0
    m_ManualUV: 0
    elementGroup: -1
    m_TextureGroup: -1
  - m_Indexes: 2c0000002d0000002e0000002d0000002f0000002e000000
    m_SmoothingGroup: 0
    m_Uv:
      m_UseWorldSpace: 0
      m_FlipU: 0
      m_FlipV: 0
      m_SwapUV: 0
      m_Fill: 1
      m_Scale: {x: 1, y: 1}
      m_Offset: {x: 0, y: 0}
      m_Rotation: 0
      m_Anchor: 9
    m_Material: {fileID: 0}
    m_SubmeshIndex: 0
    m_ManualUV: 0
    elementGroup: -1
    m_TextureGroup: -1
  - m_Indexes: 300000003100000032000000310000003300000032000000
    m_SmoothingGroup: 0
    m_Uv:
      m_UseWorldSpace: 0
      m_FlipU: 0
      m_FlipV: 0
      m_SwapUV: 0
      m_Fill: 1
      m_Scale: {x: 1, y: 1}
      m_Offset: {x: 0, y: 0}
      m_Rotation: 0
      m_Anchor: 9
    m_Material: {fileID: 0}
    m_SubmeshIndex: 0
    m_ManualUV: 0
    elementGroup: -1
    m_TextureGroup: -1
  - m_Indexes: 340000003500000036000000350000003700000036000000
    m_SmoothingGroup: 0
    m_Uv:
      m_UseWorldSpace: 0
      m_FlipU: 0
      m_FlipV: 0
      m_SwapUV: 0
      m_Fill: 1
      m_Scale: {x: 1, y: 1}
      m_Offset: {x: 0, y: 0}
      m_Rotation: 0
      m_Anchor: 9
    m_Material: {fileID: 0}
    m_SubmeshIndex: 0
    m_ManualUV: 0
    elementGroup: -1
    m_TextureGroup: -1
  - m_Indexes: 38000000390000003a000000390000003b0000003a000000
    m_SmoothingGroup: 0
    m_Uv:
      m_UseWorldSpace: 0
      m_FlipU: 0
      m_FlipV: 0
      m_SwapUV: 0
      m_Fill: 1
      m_Scale: {x: 1, y: 1}
      m_Offset: {x: 0, y: 0}
      m_Rotation: 0
      m_Anchor: 9
    m_Material: {fileID: 0}
    m_SubmeshIndex: 0
    m_ManualUV: 0
    elementGroup: -1
    m_TextureGroup: -1
  - m_Indexes: 3c0000003d0000003e0000003d0000003f0000003e000000
    m_SmoothingGroup: 0
    m_Uv:
      m_UseWorldSpace: 0
      m_FlipU: 0
      m_FlipV: 0
      m_SwapUV: 0
      m_Fill: 1
      m_Scale: {x: 1, y: 1}
      m_Offset: {x: 0, y: 0}
      m_Rotation: 0
      m_Anchor: 9
    m_Material: {fileID: 0}
    m_SubmeshIndex: 0
    m_ManualUV: 0
    elementGroup: -1
    m_TextureGroup: -1
  - m_Indexes: 400000004100000042000000410000004300000042000000
    m_SmoothingGroup: 0
    m_Uv:
      m_UseWorldSpace: 0
      m_FlipU: 0
      m_FlipV: 0
      m_SwapUV: 0
      m_Fill: 1
      m_Scale: {x: 1, y: 1}
      m_Offset: {x: 0, y: 0}
      m_Rotation: 0
      m_Anchor: 9
    m_Material: {fileID: 0}
    m_SubmeshIndex: 0
    m_ManualUV: 0
    elementGroup: -1
    m_TextureGroup: -1
  - m_Indexes: 440000004500000046000000450000004700000046000000
    m_SmoothingGroup: 0
    m_Uv:
      m_UseWorldSpace: 0
      m_FlipU: 0
      m_FlipV: 0
      m_SwapUV: 0
      m_Fill: 1
      m_Scale: {x: 1, y: 1}
      m_Offset: {x: 0, y: 0}
      m_Rotation: 0
      m_Anchor: 9
    m_Material: {fileID: 0}
    m_SubmeshIndex: 0
    m_ManualUV: 0
    elementGroup: -1
    m_TextureGroup: -1
  - m_Indexes: 48000000490000004a000000490000004b0000004a000000
    m_SmoothingGroup: 0
    m_Uv:
      m_UseWorldSpace: 0
      m_FlipU: 0
      m_FlipV: 0
      m_SwapUV: 0
      m_Fill: 1
      m_Scale: {x: 1, y: 1}
      m_Offset: {x: 0, y: 0}
      m_Rotation: 0
      m_Anchor: 9
    m_Material: {fileID: 0}
    m_SubmeshIndex: 0
    m_ManualUV: 0
    elementGroup: -1
    m_TextureGroup: -1
  - m_Indexes: 4c0000004d0000004e0000004d0000004f0000004e000000
    m_SmoothingGroup: 0
    m_Uv:
      m_UseWorldSpace: 0
      m_FlipU: 0
      m_FlipV: 0
      m_SwapUV: 0
      m_Fill: 1
      m_Scale: {x: 1, y: 1}
      m_Offset: {x: 0, y: 0}
      m_Rotation: 0
      m_Anchor: 9
    m_Material: {fileID: 0}
    m_SubmeshIndex: 0
    m_ManualUV: 0
    elementGroup: -1
    m_TextureGroup: -1
  - m_Indexes: 500000005100000052000000510000005300000052000000
    m_SmoothingGroup: 0
    m_Uv:
      m_UseWorldSpace: 0
      m_FlipU: 0
      m_FlipV: 0
      m_SwapUV: 0
      m_Fill: 1
      m_Scale: {x: 1, y: 1}
      m_Offset: {x: 0, y: 0}
      m_Rotation: 0
      m_Anchor: 9
    m_Material: {fileID: 0}
    m_SubmeshIndex: 0
    m_ManualUV: 0
    elementGroup: -1
    m_TextureGroup: -1
  - m_Indexes: 540000005500000056000000550000005700000056000000
    m_SmoothingGroup: 0
    m_Uv:
      m_UseWorldSpace: 0
      m_FlipU: 0
      m_FlipV: 0
      m_SwapUV: 0
      m_Fill: 1
      m_Scale: {x: 1, y: 1}
      m_Offset: {x: 0, y: 0}
      m_Rotation: 0
      m_Anchor: 9
    m_Material: {fileID: 0}
    m_SubmeshIndex: 0
    m_ManualUV: 0
    elementGroup: -1
    m_TextureGroup: -1
  m_SharedVertices:
  - m_Vertices: 000000000d00000016000000
  - m_Vertices: 010000000400000017000000
  - m_Vertices: 020000000f000000180000001d000000
  - m_Vertices: 100000004a0000004f000000
  - m_Vertices: 3a0000003f000000480000004d000000
  - m_Vertices: 2a0000002f000000380000003d000000
  - m_Vertices: 1a0000001f000000280000002d000000
  - m_Vertices: 03000000060000001900000020000000
  - m_Vertices: 110000004b00000052000000
  - m_Vertices: 3b000000420000004900000050000000
  - m_Vertices: 2b000000320000003900000040000000
  - m_Vertices: 1b000000220000002900000030000000
  - m_Vertices: 050000000800000015000000
  - m_Vertices: 070000000a0000002100000024000000
  - m_Vertices: 130000005300000056000000
  - m_Vertices: 43000000460000005100000054000000
  - m_Vertices: 33000000360000004100000044000000
  - m_Vertices: 23000000260000003100000034000000
  - m_Vertices: 090000000c00000014000000
  - m_Vertices: 0b0000000e0000001c00000025000000
  - m_Vertices: 120000004e00000057000000
  - m_Vertices: 3e000000470000004c00000055000000
  - m_Vertices: 2e000000370000003c00000045000000
  - m_Vertices: 1e000000270000002c00000035000000
  m_SharedTextures: []
  m_Positions:
  - {x: 0, y: 0, z: 0}
  - {x: 1, y: 0, z: 0}
  - {x: 0, y: 0.25, z: 0}
  - {x: 1, y: 0.25, z: 0}
  - {x: 1, y: 0, z: 0}
  - {x: 1, y: 0, z: -1}
  - {x: 1, y: 0.25, z: 0}
  - {x: 1, y: 0.25, z: -1}
  - {x: 1, y: 0, z: -1}
  - {x: 0, y: 0, z: -1}
  - {x: 1, y: 0.25, z: -1}
  - {x: 0, y: 0.25, z: -1}
  - {x: 0, y: 0, z: -1}
  - {x: 0, y: 0, z: 0}
  - {x: 0, y: 0.25, z: -1}
  - {x: 0, y: 0.25, z: 0}
  - {x: -0.08052063, y: 6.646535, z: 0.080519676}
  - {x: 1.0805206, y: 6.646535, z: 0.080519676}
  - {x: -0.08052063, y: 6.646535, z: -1.0805197}
  - {x: 1.0805206, y: 6.646535, z: -1.0805197}
  - {x: 0, y: 0, z: -1}
  - {x: 1, y: 0, z: -1}
  - {x: 0, y: 0, z: 0}
  - {x: 1, y: 0, z: 0}
  - {x: 0, y: 0.25, z: 0}
  - {x: 1, y: 0.25, z: 0}
  - {x: 0.111846924, y: 0.38020027, z: -0.11184716}
  - {x: 0.8881531, y: 0.38020027, z: -0.11184716}
  - {x: 0, y: 0.25, z: -1}
  - {x: 0, y: 0.25, z: 0}
  - {x: 0.111846924, y: 0.38020027, z: -0.88815284}
  - {x: 0.111846924, y: 0.38020027, z: -0.11184716}
  - {x: 1, y: 0.25, z: 0}
  - {x: 1, y: 0.25, z: -1}
  - {x: 0.8881531, y: 0.38020027, z: -0.11184716}
  - {x: 0.8881531, y: 0.38020027, z: -0.88815284}
  - {x: 1, y: 0.25, z: -1}
  - {x: 0, y: 0.25, z: -1}
  - {x: 0.8881531, y: 0.38020027, z: -0.88815284}
  - {x: 0.111846924, y: 0.38020027, z: -0.88815284}
  - {x: 0.111846924, y: 0.38020027, z: -0.11184716}
  - {x: 0.8881531, y: 0.38020027, z: -0.11184716}
  - {x: 0.1969099, y: 0.38027835, z: -0.19691014}
  - {x: 0.8030901, y: 0.38027835, z: -0.19691014}
  - {x: 0.111846924, y: 0.38020027, z: -0.88815284}
  - {x: 0.111846924, y: 0.38020027, z: -0.11184716}
  - {x: 0.1969099, y: 0.38027835, z: -0.80308986}
  - {x: 0.1969099, y: 0.38027835, z: -0.19691014}
  - {x: 0.8881531, y: 0.38020027, z: -0.11184716}
  - {x: 0.8881531, y: 0.38020027, z: -0.88815284}
  - {x: 0.8030901, y: 0.38027835, z: -0.19691014}
  - {x: 0.8030901, y: 0.38027835, z: -0.80308986}
  - {x: 0.8881531, y: 0.38020027, z: -0.88815284}
  - {x: 0.111846924, y: 0.38020027, z: -0.88815284}
  - {x: 0.8030901, y: 0.38027835, z: -0.80308986}
  - {x: 0.1969099, y: 0.38027835, z: -0.80308986}
  - {x: 0.1969099, y: 0.38027835, z: -0.19691014}
  - {x: 0.8030901, y: 0.38027835, z: -0.19691014}
  - {x: 0.1969099, y: 5.00574, z: -0.19691014}
  - {x: 0.8030901, y: 5.00574, z: -0.19691014}
  - {x: 0.1969099, y: 0.38027835, z: -0.80308986}
  - {x: 0.1969099, y: 0.38027835, z: -0.19691014}
  - {x: 0.1969099, y: 5.00574, z: -0.80308986}
  - {x: 0.1969099, y: 5.00574, z: -0.19691014}
  - {x: 0.8030901, y: 0.38027835, z: -0.19691014}
  - {x: 0.8030901, y: 0.38027835, z: -0.80308986}
  - {x: 0.8030901, y: 5.00574, z: -0.19691014}
  - {x: 0.8030901, y: 5.00574, z: -0.80308986}
  - {x: 0.8030901, y: 0.38027835, z: -0.80308986}
  - {x: 0.1969099, y: 0.38027835, z: -0.80308986}
  - {x: 0.8030901, y: 5.00574, z: -0.80308986}
  - {x: 0.1969099, y: 5.00574, z: -0.80308986}
  - {x: 0.1969099, y: 5.00574, z: -0.19691014}
  - {x: 0.8030901, y: 5.00574, z: -0.19691014}
  - {x: -0.08052063, y: 6.646535, z: 0.080519676}
  - {x: 1.0805206, y: 6.646535, z: 0.080519676}
  - {x: 0.1969099, y: 5.00574, z: -0.80308986}
  - {x: 0.1969099, y: 5.00574, z: -0.19691014}
  - {x: -0.08052063, y: 6.646535, z: -1.0805197}
  - {x: -0.08052063, y: 6.646535, z: 0.080519676}
  - {x: 0.8030901, y: 5.00574, z: -0.19691014}
  - {x: 0.8030901, y: 5.00574, z: -0.80308986}
  - {x: 1.0805206, y: 6.646535, z: 0.080519676}
  - {x: 1.0805206, y: 6.646535, z: -1.0805197}
  - {x: 0.8030901, y: 5.00574, z: -0.80308986}
  - {x: 0.1969099, y: 5.00574, z: -0.80308986}
  - {x: 1.0805206, y: 6.646535, z: -1.0805197}
  - {x: -0.08052063, y: 6.646535, z: -1.0805197}
  m_Textures0:
  - {x: 0, y: 0}
  - {x: -1, y: 0}
  - {x: 0, y: 0.25}
  - {x: -1, y: 0.25}
  - {x: 0, y: 0}
  - {x: -1, y: 0}
  - {x: 0, y: 0.25}
  - {x: -1, y: 0.25}
  - {x: 1, y: 0}
  - {x: 0, y: 0}
  - {x: 1, y: 0.25}
  - {x: 0, y: 0.25}
  - {x: 1, y: 0}
  - {x: 0, y: 0}
  - {x: 1, y: 0.25}
  - {x: 0, y: 0.25}
  - {x: -0.08052063, y: 0.080519676}
  - {x: 1.0805206, y: 0.080519676}
  - {x: -0.08052063, y: -1.0805197}
  - {x: 1.0805206, y: -1.0805197}
  - {x: 0, y: -1}
  - {x: -1, y: -1}
  - {x: 0, y: 0}
  - {x: -1, y: 0}
  - {x: 0, y: 0.18963633}
  - {x: -1, y: 0.18963633}
  - {x: -0.111846924, y: 0.36128104}
  - {x: -0.8881531, y: 0.36128104}
  - {x: 1, y: 0.1896365}
  - {x: 0, y: 0.1896365}
  - {x: 0.88815284, y: 0.36128104}
  - {x: 0.11184716, y: 0.36128104}
  - {x: 0, y: -0.46198305}
  - {x: -1, y: -0.46198305}
  - {x: -0.11184716, y: -0.29033852}
  - {x: -0.88815284, y: -0.29033852}
  - {x: 1, y: -0.46198398}
  - {x: 0, y: -0.46198398}
  - {x: 0.8881531, y: -0.2903393}
  - {x: 0.111846924, y: -0.2903393}
  - {x: 0.111846924, y: -0.11219611}
  - {x: 0.8881531, y: -0.11219611}
  - {x: 0.1969099, y: -0.19725913}
  - {x: 0.8030901, y: -0.19725913}
  - {x: 0.11219587, y: -0.88815284}
  - {x: 0.11219587, y: -0.11184716}
  - {x: 0.19725889, y: -0.80308986}
  - {x: 0.19725889, y: -0.19691014}
  - {x: 0.88780373, y: -0.11184716}
  - {x: 0.88780373, y: -0.88815284}
  - {x: 0.8027407, y: -0.19691014}
  - {x: 0.8027407, y: -0.80308986}
  - {x: 0.8881531, y: -0.8878035}
  - {x: 0.111846924, y: -0.8878035}
  - {x: 0.8030901, y: -0.80274045}
  - {x: 0.1969099, y: -0.80274045}
  - {x: -0.1969099, y: 0.38027835}
  - {x: -0.8030901, y: 0.38027835}
  - {x: -0.1969099, y: 5.00574}
  - {x: -0.8030901, y: 5.00574}
  - {x: 0.80308986, y: 0.38027835}
  - {x: 0.19691014, y: 0.38027835}
  - {x: 0.80308986, y: 5.00574}
  - {x: 0.19691014, y: 5.00574}
  - {x: -0.19691014, y: 0.38027835}
  - {x: -0.80308986, y: 0.38027835}
  - {x: -0.19691014, y: 5.00574}
  - {x: -0.80308986, y: 5.00574}
  - {x: 0.8030901, y: 0.38027835}
  - {x: 0.1969099, y: 0.38027835}
  - {x: 0.8030901, y: 5.00574}
  - {x: 0.1969099, y: 5.00574}
  - {x: -0.1969099, y: 4.9028563}
  - {x: -0.8030901, y: 4.9028563}
  - {x: 0.08052063, y: 6.56694}
  - {x: -1.0805206, y: 6.56694}
  - {x: 0.80308986, y: 4.902856}
  - {x: 0.19691014, y: 4.902856}
  - {x: 1.0805197, y: 6.56694}
  - {x: -0.080519676, y: 6.56694}
  - {x: -0.19691014, y: 5.0695724}
  - {x: -0.80308986, y: 5.0695724}
  - {x: 0.080519676, y: 6.7336564}
  - {x: -1.0805197, y: 6.7336564}
  - {x: 0.8030901, y: 5.0695724}
  - {x: 0.1969099, y: 5.0695724}
  - {x: 1.0805206, y: 6.733656}
  - {x: -0.08052063, y: 6.733656}
  m_Textures2: []
  m_Textures3: []
  m_Tangents:
  - {x: -1, y: 0, z: 0, w: -1}
  - {x: -1, y: 0, z: 0, w: -1}
  - {x: -1, y: 0, z: 0, w: -1}
  - {x: -1, y: 0, z: 0, w: -1}
  - {x: 0, y: 0, z: 1, w: -1}
  - {x: 0, y: 0, z: 1, w: -1}
  - {x: 0, y: 0, z: 1, w: -1}
  - {x: 0, y: 0, z: 1, w: -1}
  - {x: 1, y: 0, z: 0, w: -1}
  - {x: 1, y: 0, z: 0, w: -1}
  - {x: 1, y: 0, z: 0, w: -1}
  - {x: 1, y: 0, z: 0, w: -1}
  - {x: 0, y: 0, z: -1, w: -1}
  - {x: 0, y: 0, z: -1, w: -1}
  - {x: 0, y: 0, z: -1, w: -1}
  - {x: 0, y: 0, z: -1, w: -1}
  - {x: 1, y: 0, z: 0, w: -1}
  - {x: 1, y: 0, z: 0, w: -1}
  - {x: 1, y: 0, z: 0, w: -1}
  - {x: 1, y: 0, z: 0, w: -1}
  - {x: -1, y: 0, z: 0, w: -1}
  - {x: -1, y: 0, z: 0, w: -1}
  - {x: -1, y: 0, z: 0, w: -1}
  - {x: -1, y: 0, z: 0, w: -1}
  - {x: -1, y: 0, z: 0, w: -1}
  - {x: -1, y: 0, z: 0, w: -1}
  - {x: -1, y: 0, z: 0, w: -1}
  - {x: -1, y: 0, z: 0, w: -1}
  - {x: 0, y: 0, z: -1, w: -1}
  - {x: 0, y: 0, z: -1, w: -1}
  - {x: 0, y: 0, z: -1, w: -1}
  - {x: 0, y: 0, z: -1, w: -1}
  - {x: 0, y: 0, z: 1, w: -1}
  - {x: 0, y: 0, z: 1, w: -1}
  - {x: 0, y: 0, z: 1, w: -1}
  - {x: 0, y: 0, z: 1, w: -1}
  - {x: 1, y: 0, z: 0, w: -1}
  - {x: 1, y: 0, z: 0, w: -1}
  - {x: 1, y: 0, z: 0, w: -1}
  - {x: 1, y: 0, z: 0, w: -1}
  - {x: 1, y: 0, z: 0, w: -1}
  - {x: 1, y: 0, z: 0, w: -1}
  - {x: 1, y: 0, z: 0, w: -1}
  - {x: 1, y: 0, z: 0, w: -1}
  - {x: 0.9999996, y: 0.00091793225, z: 0, w: -1}
  - {x: 0.9999996, y: 0.00091793225, z: 0, w: -1}
  - {x: 0.9999996, y: 0.00091793225, z: 0, w: -1}
  - {x: 0.9999996, y: 0.0009179322, z: 0, w: -1}
  - {x: 0.9999996, y: -0.0009179323, z: 0, w: -1}
  - {x: 0.9999996, y: -0.0009179323, z: 0, w: -1}
  - {x: 0.9999996, y: -0.0009179323, z: 0, w: -1}
  - {x: 0.9999996, y: -0.00091793225, z: 0, w: -1}
  - {x: 1, y: 0, z: 0, w: -1}
  - {x: 1, y: 0, z: 0, w: -1}
  - {x: 1, y: 0, z: 0, w: -1}
  - {x: 1, y: 0, z: 0, w: -1}
  - {x: -1, y: 0, z: 0, w: -1}
  - {x: -1, y: 0, z: 0, w: -1}
  - {x: -1, y: 0, z: 0, w: -1}
  - {x: -1, y: 0, z: 0, w: -1}
  - {x: 0, y: 0, z: -1, w: -1}
  - {x: 0, y: 0, z: -1, w: -1}
  - {x: 0, y: 0, z: -1, w: -1}
  - {x: 0, y: 0, z: -1, w: -1}
  - {x: 0, y: 0, z: 1, w: -1}
  - {x: 0, y: 0, z: 1, w: -1}
  - {x: 0, y: 0, z: 1, w: -1}
  - {x: 0, y: 0, z: 1, w: -1}
  - {x: 1, y: 0, z: 0, w: -1}
  - {x: 1, y: 0, z: 0, w: -1}
  - {x: 1, y: 0, z: 0, w: -1}
  - {x: 1, y: 0, z: 0, w: -1}
  - {x: -1, y: 0, z: 0, w: -1}
  - {x: -1, y: 0, z: 0, w: -1}
  - {x: -1, y: 0, z: 0, w: -1}
  - {x: -1, y: 0, z: 0, w: -1}
  - {x: 0, y: 0, z: -1, w: -1}
  - {x: 0, y: 0, z: -1, w: -1}
  - {x: 0, y: 0, z: -1, w: -1}
  - {x: 0, y: 0, z: -1, w: -1}
  - {x: 0, y: 0, z: 1, w: -1}
  - {x: 0, y: 0, z: 1, w: -1}
  - {x: 0, y: 0, z: 1, w: -1}
  - {x: 0, y: 0, z: 1, w: -1}
  - {x: 1, y: 0, z: 0, w: -1}
  - {x: 1, y: 0, z: 0, w: -1}
  - {x: 1, y: 0, z: 0, w: -1}
  - {x: 1, y: 0, z: 0, w: -1}
  m_Colors: []
  m_UnwrapParameters:
    m_HardAngle: 88
    m_PackMargin: 20
    m_AngleError: 8
    m_AreaError: 15
  m_PreserveMeshAssetOnDestroy: 0
  assetGuid: 
  m_IsSelectable: 1
  m_SelectedFaces: 04000000
  m_SelectedEdges:
  - a: 16
    b: 17
  - a: 18
    b: 16
  - a: 17
    b: 19
  - a: 19
    b: 18
  m_SelectedVertices: 10000000110000001200000013000000
--- !u!64 &103676398321787436
MeshCollider:
  m_ObjectHideFlags: 0
  m_CorrespondingSourceObject: {fileID: 0}
  m_PrefabInstance: {fileID: 0}
  m_PrefabAsset: {fileID: 0}
  m_GameObject: {fileID: 6012999397991813326}
  m_Material: {fileID: 0}
  m_IsTrigger: 0
  m_Enabled: 1
  serializedVersion: 4
  m_Convex: 0
  m_CookingOptions: 30
  m_Mesh: {fileID: 0}
